memory_initialization_radix=16;
memory_initialization_vector=
7FFF0000,
7910298F,
65024E9E,
46026B27,
1F6C7C14,
F56E7F8F,
CC967537,
A9505E2B,
8F6E3CEB,
81C01511,
81C0EAEF,
8F6EC315,
A950A1D5,
CC968AC9,
F56E8071,
1F6C83EC,
460294D9,
6502B162,
7910D671,
00000000,
00000000,
00000000,
00000000,
00000000,
00000000,
00000000,
00000000,
00000000,
00000000,
00000000,
00000000,
00000000;