memory_initialization_radix=16;
memory_initialization_vector=
7FFF0000,
7D011B84,
742B35BF,
65E64D76,
52DD618E,
3BF47116,
223E7B55,
06EE7FCF,
EB4B7E4F,
D0A076E8,
B82C69F1,
A3135806,
925341FD,
86B428DF,
80C10DD7,
80C1F229,
86B4D721,
9253BE03,
A313A7FA,
B82C960F,
D0A08918,
EB4B81B1,
06EE8031,
223E84AB,
3BF48EEA,
52DD9E72,
65E6B28A,
742BCA41,
7D01E47C,
00000000,
00000000,
00000000;