memory_initialization_radix=16;
memory_initialization_vector=
7FFF0000,
7D60E63C,
759FCD86,
690EB6E1,
582FA33B,
43B59361,
2C7487F9,
1362817B,
F984802B,
DFEB8417,
C7A28D16,
B1A79AC9,
9EE2ACA0,
9016C1E2,
85E0D9AF,
80A9F30D,
80A90CF3,
85E02651,
90163E1E,
9EE25360,
B1A76537,
C7A272EA,
DFEB7BE9,
F9847FD5,
13627E85,
2C747807,
43B56CA0,
582F5CC5,
690E491F,
759F327A,
7D6019C4,
00000000;